[{
  "field": "title",
  "method": "isEmpty",
  "args": [{"ignore_whitespace": true}],
  "validWhen": false,
  "message": "err-2001"
},
{
  "field": "title",
  "method": "isLength",
  "args": [{"max": 60}],
  "validWhen": true,
  "message": "err-2002"
},
{
  "field": "short_title",
  "method": "isEmpty",
  "args": [{"ignore_whitespace": true}],
  "validWhen": false,
  "message": "err-2001"
},
{
  "field": "short_title",
  "method": "isLength",
  "args": [{"max": 30}],
  "validWhen": true,
  "message": "err-2002"
},
{
  "field": "short_description",
  "method": "isEmpty",
  "args": [{"ignore_whitespace": true}],
  "validWhen": false,
  "message": "err-2001"
},
{
  "field": "short_description",
  "method": "isLength",
  "args": [{"max": 140}],
  "validWhen": true,
  "message": "err-2002"
},
{
  "field": "interests",
  "method": "isLength",
  "args": [{"min": 1}],
  "validWhen": true,
  "message": "err-2003"
},
{
  "field": "skills",
  "method": "isLength",
  "args": [{"min": 1}],
  "validWhen": true,
  "message": "err-2004"
}]