[{
  "field": "title",
  "method": "isEmpty",
  "args": [{"ignore_whitespace": true}],
  "validWhen": false,
  "message": "err-2001"
},
{
  "field": "title",
  "method": "isLength",
  "args": [{"max": 60}],
  "validWhen": true,
  "message": "err-2002"
},
{
  "field": "content",
  "method": "isEmpty",
  "args": [{"ignore_whitespace": true}],
  "validWhen": false,
  "message": "err-2001"
},
{
  "field": "content",
  "method": "isLength",
  "args": [{"max": 3000}],
  "validWhen": true,
  "message": "err-2002"
}]